Data Wrangling
…
```r
library(readr)

penguins <- read_csv("data/penguins.csv")

penguins

```

]

.panel[.panel-name[Output]

```
# A tibble: 344 x 8
   species island  bill_length_mm bill_depth_mm flipper_length_… body_mass_g sex    year
   <chr>   <chr>            <dbl>         <dbl>            <dbl>       <dbl> <chr> <dbl>
 1 Adelie  Torger…           39.1          18.7              181        3750 male   2007
 2 Adelie  Torger…           39.5          17.4              186        3800 fema…  2007
 3 Adelie  Torger…           40.3          18                195        3250 fema…  2007
 4 Adelie  Torger…           NA            NA                 NA          NA <NA>   2007
 5 Adelie  Torger…           36.7          19.3              193        3450 fema…  2007
 6 Adelie  Torger…           39.3          20.6              190        3650 male   2007
 7 Adelie  Torger…           38.9          17.8              181        3625 fema…  2007
 8 Adelie  Torger…           39.2          19.6              195        4675 male   2007
 9 Adelie  Torger…           34.1          18.1              193        3475 <NA>   2007
10 Adelie  Torger…           42            20.2              190        4250 <NA>   2007
# … with 334 more rows
```
…
penguins
```
]

.panel[.panel-name[Output]

```
# A tibble: 344 x 8
   species island  bill_length_mm bill_depth_mm flipper_length_… body_mass_g sex    year
   <fct>   <fct>            <dbl>         <dbl>            <int>       <int> <fct> <int>
 1 Adelie  Torger…           39.1          18.7              181        3750 male   2007
 2 Adelie  Torger…           39.5          17.4              186        3800 fema…  2007
 3 Adelie  Torger…           40.3          18                195        3250 fema…  2007
 4 Adelie  Torger…           NA            NA                 NA          NA <NA>   2007
 5 Adelie  Torger…           36.7          19.3              193        3450 fema…  2007
 6 Adelie  Torger…           39.3          20.6              190        3650 male   2007
 7 Adelie  Torger…           38.9          17.8              181        3625 fema…  2007
 8 Adelie  Torger…           39.2          19.6              195        4675 male   2007
 9 Adelie  Torger…           34.1          18.1              193        3475 <NA>   2007
10 Adelie  Torger…           42            20.2              190        4250 <NA>   2007
# … with 334 more rows
```
…
.panelset[

.panel[.panel-name[Codes]

```r
penguins %>% 
  filter(species == "Gentoo")
```
]

.panel[.panel-name[Output]

```
# A tibble: 124 x 8
   species island bill_length_mm bill_depth_mm flipper_length_mm body_mass_g sex    year
   <fct>   <fct>           <dbl>         <dbl>             <int>       <int> <fct> <int>
 1 Gentoo  Biscoe           46.1          13.2               211        4500 fema…  2007
 2 Gentoo  Biscoe           50            16.3               230        5700 male   2007
 3 Gentoo  Biscoe           48.7          14.1               210        4450 fema…  2007
 4 Gentoo  Biscoe           50            15.2               218        5700 male   2007
 5 Gentoo  Biscoe           47.6          14.5               215        5400 male   2007
 6 Gentoo  Biscoe           46.5          13.5               210        4550 fema…  2007
 7 Gentoo  Biscoe           45.4          14.6               211        4800 fema…  2007
 8 Gentoo  Biscoe           46.7          15.3               219        5200 male   2007
 9 Gentoo  Biscoe           43.3          13.4               209        4400 fema…  2007
10 Gentoo  Biscoe           46.8          15.4               215        5150 male   2007
# … with 114 more rows
```
…
.panelset[

.panel[.panel-name[Codes]

```r
penguins %>% 
  filter(bill_length_mm > 43)
```
]

.panel[.panel-name[Output]

```
# A tibble: 188 x 8
   species island  bill_length_mm bill_depth_mm flipper_length_… body_mass_g sex    year
   <fct>   <fct>            <dbl>         <dbl>            <int>       <int> <fct> <int>
 1 Adelie  Torger…           46            21.5              194        4200 male   2007
 2 Adelie  Dream             44.1          19.7              196        4400 male   2007
 3 Adelie  Torger…           45.8          18.9              197        4150 male   2008
 4 Adelie  Dream             43.2          18.5              192        4100 male   2008
 5 Adelie  Biscoe            43.2          19                197        4775 male   2009
 6 Adelie  Biscoe            45.6          20.3              191        4600 male   2009
 7 Adelie  Torger…           44.1          18                210        4000 male   2009
 8 Adelie  Torger…           43.1          19.2              197        3500 male   2009
 9 Gentoo  Biscoe            46.1          13.2              211        4500 fema…  2007
10 Gentoo  Biscoe            50            16.3              230        5700 male   2007
# … with 178 more rows
```
…
.panelset[

.panel[.panel-name[Codes]

```r
penguins %>% 
  filter(species == "Gentoo",
         bill_length_mm > 45)
```
]

.panel[.panel-name[Output]

```
# A tibble: 100 x 8
   species island bill_length_mm bill_depth_mm flipper_length_mm body_mass_g sex    year
   <fct>   <fct>           <dbl>         <dbl>             <int>       <int> <fct> <int>
 1 Gentoo  Biscoe           46.1          13.2               211        4500 fema…  2007
 2 Gentoo  Biscoe           50            16.3               230        5700 male   2007
 3 Gentoo  Biscoe           48.7          14.1               210        4450 fema…  2007
 4 Gentoo  Biscoe           50            15.2               218        5700 male   2007
 5 Gentoo  Biscoe           47.6          14.5               215        5400 male   2007
 6 Gentoo  Biscoe           46.5          13.5               210        4550 fema…  2007
 7 Gentoo  Biscoe           45.4          14.6               211        4800 fema…  2007
 8 Gentoo  Biscoe           46.7          15.3               219        5200 male   2007
 9 Gentoo  Biscoe           46.8          15.4               215        5150 male   2007
10 Gentoo  Biscoe           49            16.1               216        5550 male   2007
# … with 90 more rows
```
…
.panelset[

.panel[.panel-name[Codes]

```r
penguins %>% 
  slice(51:150)
```
]

.panel[.panel-name[Output]

```
# A tibble: 100 x 8
   species island bill_length_mm bill_depth_mm flipper_length_mm body_mass_g sex    year
   <fct>   <fct>           <dbl>         <dbl>             <int>       <int> <fct> <int>
 1 Adelie  Biscoe           39.6          17.7               186        3500 fema…  2008
 2 Adelie  Biscoe           40.1          18.9               188        4300 male   2008
 3 Adelie  Biscoe           35            17.9               190        3450 fema…  2008
 4 Adelie  Biscoe           42            19.5               200        4050 male   2008
 5 Adelie  Biscoe           34.5          18.1               187        2900 fema…  2008
 6 Adelie  Biscoe           41.4          18.6               191        3700 male   2008
 7 Adelie  Biscoe           39            17.5               186        3550 fema…  2008
 8 Adelie  Biscoe           40.6          18.8               193        3800 male   2008
 9 Adelie  Biscoe           36.5          16.6               181        2850 fema…  2008
10 Adelie  Biscoe           37.6          19.1               194        3750 male   2008
# … with 90 more rows
```
…
.panelset[

.panel[.panel-name[Codes]

```r
penguins %>% 
  arrange(body_mass_g)
```
]

.panel[.panel-name[Output]

```
# A tibble: 344 x 8
   species  island bill_length_mm bill_depth_mm flipper_length_… body_mass_g sex    year
   <fct>    <fct>           <dbl>         <dbl>            <int>       <int> <fct> <int>
 1 Chinstr… Dream            46.9          16.6              192        2700 fema…  2008
 2 Adelie   Biscoe           36.5          16.6              181        2850 fema…  2008
 3 Adelie   Biscoe           36.4          17.1              184        2850 fema…  2008
 4 Adelie   Biscoe           34.5          18.1              187        2900 fema…  2008
 5 Adelie   Dream            33.1          16.1              178        2900 fema…  2008
 6 Adelie   Torge…           38.6          17                188        2900 fema…  2009
 7 Chinstr… Dream            43.2          16.6              187        2900 fema…  2007
 8 Adelie   Biscoe           37.9          18.6              193        2925 fema…  2009
 9 Adelie   Dream            37.5          18.9              179        2975 <NA>   2007
10 Adelie   Dream            37            16.9              185        3000 fema…  2007
# … with 334 more rows
```
…
.panelset[

.panel[.panel-name[Codes]

```r
penguins %>% 
  arrange(desc(body_mass_g))
```
]

.panel[.panel-name[Output]

```
# A tibble: 344 x 8
   species island bill_length_mm bill_depth_mm flipper_length_mm body_mass_g sex    year
   <fct>   <fct>           <dbl>         <dbl>             <int>       <int> <fct> <int>
 1 Gentoo  Biscoe           49.2          15.2               221        6300 male   2007
 2 Gentoo  Biscoe           59.6          17                 230        6050 male   2007
 3 Gentoo  Biscoe           51.1          16.3               220        6000 male   2008
 4 Gentoo  Biscoe           48.8          16.2               222        6000 male   2009
 5 Gentoo  Biscoe           45.2          16.4               223        5950 male   2008
 6 Gentoo  Biscoe           49.8          15.9               229        5950 male   2009
 7 Gentoo  Biscoe           48.4          14.6               213        5850 male   2007
 8 Gentoo  Biscoe           49.3          15.7               217        5850 male   2007
 9 Gentoo  Biscoe           55.1          16                 230        5850 male   2009
10 Gentoo  Biscoe           49.5          16.2               229        5800 male   2008
# … with 334 more rows
```
…
.panelset[

.panel[.panel-name[Codes]

```r
penguins %>% 
  select(species)
```
]

.panel[.panel-name[Output]

```
# A tibble: 344 x 1
   species
   <fct>  
 1 Adelie 
 2 Adelie 
 3 Adelie 
 4 Adelie 
 5 Adelie 
 6 Adelie 
 7 Adelie 
 8 Adelie 
 9 Adelie 
10 Adelie 
# … with 334 more rows
```
…
.panelset[

.panel[.panel-name[Codes]

```r
penguins %>% 
  select(species : bill_depth_mm)
```
]

.panel[.panel-name[Output]

```
# A tibble: 344 x 4
   species island    bill_length_mm bill_depth_mm
   <fct>   <fct>              <dbl>         <dbl>
 1 Adelie  Torgersen           39.1          18.7
 2 Adelie  Torgersen           39.5          17.4
 3 Adelie  Torgersen           40.3          18  
 4 Adelie  Torgersen           NA            NA  
 5 Adelie  Torgersen           36.7          19.3
 6 Adelie  Torgersen           39.3          20.6
 7 Adelie  Torgersen           38.9          17.8
 8 Adelie  Torgersen           39.2          19.6
 9 Adelie  Torgersen           34.1          18.1
10 Adelie  Torgersen           42            20.2
# … with 334 more rows
```
…
.panelset[

.panel[.panel-name[Codes]

```r
penguins %>% 
  select(4:8)
```
]

.panel[.panel-name[Output]

```
# A tibble: 344 x 5
   bill_depth_mm flipper_length_mm body_mass_g sex     year
           <dbl>             <int>       <int> <fct>  <int>
 1          18.7               181        3750 male    2007
 2          17.4               186        3800 female  2007
 3          18                 195        3250 female  2007
 4          NA                  NA          NA <NA>    2007
 5          19.3               193        3450 female  2007
 6          20.6               190        3650 male    2007
 7          17.8               181        3625 female  2007
 8          19.6               195        4675 male    2007
 9          18.1               193        3475 <NA>    2007
10          20.2               190        4250 <NA>    2007
# … with 334 more rows
```
…
.panelset[

.panel[.panel-name[Codes]

```r
penguins %>% 
  select(species, body_mass_g, year)
```
]

.panel[.panel-name[Output]

```
# A tibble: 344 x 3
   species body_mass_g  year
   <fct>         <int> <int>
 1 Adelie         3750  2007
 2 Adelie         3800  2007
 3 Adelie         3250  2007
 4 Adelie           NA  2007
 5 Adelie         3450  2007
 6 Adelie         3650  2007
 7 Adelie         3625  2007
 8 Adelie         4675  2007
 9 Adelie         3475  2007
10 Adelie         4250  2007
# … with 334 more rows
```
…
.panelset[

.panel[.panel-name[Codes]

```r
penguins %>% 
  select(-c(species, body_mass_g, year))
```
]

.panel[.panel-name[Output]

```
# A tibble: 344 x 5
   island    bill_length_mm bill_depth_mm flipper_length_mm sex   
   <fct>              <dbl>         <dbl>             <int> <fct> 
 1 Torgersen           39.1          18.7               181 male  
 2 Torgersen           39.5          17.4               186 female
 3 Torgersen           40.3          18                 195 female
 4 Torgersen           NA            NA                  NA <NA>  
 5 Torgersen           36.7          19.3               193 female
 6 Torgersen           39.3          20.6               190 male  
 7 Torgersen           38.9          17.8               181 female
 8 Torgersen           39.2          19.6               195 male  
 9 Torgersen           34.1          18.1               193 <NA>  
10 Torgersen           42            20.2               190 <NA>  
# … with 334 more rows
```
…
.panelset[

.panel[.panel-name[Codes]

```r
penguins %>% 
  rename(weight = body_mass_g,
        flipper_weight = flipper_length_mm)
```
]

.panel[.panel-name[Output]

```
# A tibble: 344 x 8
   species island    bill_length_mm bill_depth_mm flipper_weight weight sex     year
   <fct>   <fct>              <dbl>         <dbl>          <int>  <int> <fct>  <int>
 1 Adelie  Torgersen           39.1          18.7            181   3750 male    2007
 2 Adelie  Torgersen           39.5          17.4            186   3800 female  2007
 3 Adelie  Torgersen           40.3          18              195   3250 female  2007
 4 Adelie  Torgersen           NA            NA               NA     NA <NA>    2007
 5 Adelie  Torgersen           36.7          19.3            193   3450 female  2007
 6 Adelie  Torgersen           39.3          20.6            190   3650 male    2007
 7 Adelie  Torgersen           38.9          17.8            181   3625 female  2007
 8 Adelie  Torgersen           39.2          19.6            195   4675 male    2007
 9 Adelie  Torgersen           34.1          18.1            193   3475 <NA>    2007
10 Adelie  Torgersen           42            20.2            190   4250 <NA>    2007
# … with 334 more rows
```
…
.panelset[

.panel[.panel-name[Codes]

```r
penguins %>% 
  mutate(body_mass_g = body_mass_g / 1000)
```
]

.panel[.panel-name[Output]

```
# A tibble: 344 x 8
   species island  bill_length_mm bill_depth_mm flipper_length_… body_mass_g sex    year
   <fct>   <fct>            <dbl>         <dbl>            <int>       <dbl> <fct> <int>
 1 Adelie  Torger…           39.1          18.7              181        3.75 male   2007
 2 Adelie  Torger…           39.5          17.4              186        3.8  fema…  2007
 3 Adelie  Torger…           40.3          18                195        3.25 fema…  2007
 4 Adelie  Torger…           NA            NA                 NA       NA    <NA>   2007
 5 Adelie  Torger…           36.7          19.3              193        3.45 fema…  2007
 6 Adelie  Torger…           39.3          20.6              190        3.65 male   2007
 7 Adelie  Torger…           38.9          17.8              181        3.62 fema…  2007
 8 Adelie  Torger…           39.2          19.6              195        4.68 male   2007
 9 Adelie  Torger…           34.1          18.1              193        3.48 <NA>   2007
10 Adelie  Torger…           42            20.2              190        4.25 <NA>   2007
# … with 334 more rows
```
…
.panelset[

.panel[.panel-name[Codes]

```r
penguins %>% 
  mutate(body_mass_g = body_mass_g / 1000,
         bill = bill_length_mm * bill_depth_mm)
```
]

.panel[.panel-name[Output]

```
# A tibble: 344 x 9
   species island bill_length_mm bill_depth_mm flipper_length_… body_mass_g sex    year
   <fct>   <fct>           <dbl>         <dbl>            <int>       <dbl> <fct> <int>
 1 Adelie  Torge…           39.1          18.7              181        3.75 male   2007
 2 Adelie  Torge…           39.5          17.4              186        3.8  fema…  2007
 3 Adelie  Torge…           40.3          18                195        3.25 fema…  2007
 4 Adelie  Torge…           NA            NA                 NA       NA    <NA>   2007
 5 Adelie  Torge…           36.7          19.3              193        3.45 fema…  2007
 6 Adelie  Torge…           39.3          20.6              190        3.65 male   2007
 7 Adelie  Torge…           38.9          17.8              181        3.62 fema…  2007
 8 Adelie  Torge…           39.2          19.6              195        4.68 male   2007
 9 Adelie  Torge…           34.1          18.1              193        3.48 <NA>   2007
10 Adelie  Torge…           42            20.2              190        4.25 <NA>   2007
# … with 334 more rows, and 1 more variable: bill <dbl>
```
…
.panelset[

.panel[.panel-name[Codes]

```r
penguins %>% 
  transmute(body_mass_kg = body_mass_g / 1000,
         bill_cm = (bill_length_mm * 0.1) * (bill_depth_mm * 0.1))
```
]

.panel[.panel-name[Output]

```
# A tibble: 344 x 2
   body_mass_kg bill_cm
          <dbl>   <dbl>
 1         3.75    7.31
 2         3.8     6.87
 3         3.25    7.25
 4        NA      NA   
 5         3.45    7.08
 6         3.65    8.10
 7         3.62    6.92
 8         4.68    7.68
 9         3.48    6.17
10         4.25    8.48
# … with 334 more rows
```
…
.panelset[

.panel[.panel-name[Codes]

```r
penguins %>% 
  relocate(year, sex)
```
]

.panel[.panel-name[Output]

```
# A tibble: 344 x 8
    year sex    species island bill_length_mm bill_depth_mm flipper_length_… body_mass_g
   <int> <fct>  <fct>   <fct>           <dbl>         <dbl>            <int>       <int>
 1  2007 male   Adelie  Torge…           39.1          18.7              181        3750
 2  2007 female Adelie  Torge…           39.5          17.4              186        3800
 3  2007 female Adelie  Torge…           40.3          18                195        3250
 4  2007 <NA>   Adelie  Torge…           NA            NA                 NA          NA
 5  2007 female Adelie  Torge…           36.7          19.3              193        3450
 6  2007 male   Adelie  Torge…           39.3          20.6              190        3650
 7  2007 female Adelie  Torge…           38.9          17.8              181        3625
 8  2007 male   Adelie  Torge…           39.2          19.6              195        4675
 9  2007 <NA>   Adelie  Torge…           34.1          18.1              193        3475
10  2007 <NA>   Adelie  Torge…           42            20.2              190        4250
# … with 334 more rows
```
…
