Data Wrangling
…
Remember to add the pipe %>% at the end of each line involved in the piped operation

3 Based upon rows

3.1 Based upon a factor variable

I need data only about the female penguins.

filter(
  penguins,
  sex == "female"
)

# A tibble: 165 x 8
   species island bill_length_mm bill_depth_mm flipper_length_ body_mass_g
   <fct>   <fct>           <dbl>         <dbl>            <int>       <int>
 1 Adelie  Torge           39.5          17.4              186        3800
 2 Adelie  Torge           40.3          18                195        3250
 3 Adelie  Torge           36.7          19.3              193        3450
 4 Adelie  Torge           38.9          17.8              181        3625
 5 Adelie  Torge           41.1          17.6              182        3200
 6 Adelie  Torge           36.6          17.8              185        3700
 7 Adelie  Torge           38.7          19                195        3450
 8 Adelie  Torge           34.4          18.4              184        3325
 9 Adelie  Biscoe           37.8          18.3              174        3400
10 Adelie  Biscoe           35.9          19.2              189        3800
#  with 155 more rows, and 2 more variables: sex <fct>, year <int>

using the magrittr pipes %>%

penguins %>%
  filter(sex == "female")

# A tibble: 165 x 8
   species island bill_length_mm bill_depth_mm flipper_length_ body_mass_g
   <fct>   <fct>           <dbl>         <dbl>            <int>       <int>
 1 Adelie  Torge           39.5          17.4              186        3800
 2 Adelie  Torge           40.3          18                195        3250
 3 Adelie  Torge           36.7          19.3              193        3450
 4 Adelie  Torge           38.9          17.8              181        3625
 5 Adelie  Torge           41.1          17.6              182        3200
 6 Adelie  Torge           36.6          17.8              185        3700
 7 Adelie  Torge           38.7          19                195        3450
 8 Adelie  Torge           34.4          18.4              184        3325
 9 Adelie  Biscoe           37.8          18.3              174        3400
10 Adelie  Biscoe           35.9          19.2              189        3800
#  with 155 more rows, and 2 more variables: sex <fct>, year <int>

3.2 Based upon a numeric variable

Instead of a factor variable, you can also try to filter the rows/samples based upon a numeric value as well.

penguins %>%
  filter(bill_length_mm < 40)

# A tibble: 100 x 8
   species island bill_length_mm bill_depth_mm flipper_length_ body_mass_g
   <fct>   <fct>           <dbl>         <dbl>            <int>       <int>
 1 Adelie  Torge           39.1          18.7              181        3750
 2 Adelie  Torge           39.5          17.4              186        3800
 3 Adelie  Torge           36.7          19.3              193        3450
 4 Adelie  Torge           39.3          20.6              190        3650
 5 Adelie  Torge           38.9          17.8              181        3625
 6 Adelie  Torge           39.2          19.6              195        4675
 7 Adelie  Torge           34.1          18.1              193        3475
 8 Adelie  Torge           37.8          17.1              186        3300
 9 Adelie  Torge           37.8          17.3              180        3700
10 Adelie  Torge           38.6          21.2              191        3800
#  with 90 more rows, and 2 more variables: sex <fct>, year <int>

3.3 Based upon a factor and a numeric variable

penguins %>%
  filter(
    sex == "male",
    bill_length_mm > 35,
    body_mass_g > 1000
  )

# A tibble: 167 x 8
   species island bill_length_mm bill_depth_mm flipper_length_ body_mass_g
   <fct>   <fct>           <dbl>         <dbl>            <int>       <int>
 1 Adelie  Torge           39.1          18.7              181        3750
 2 Adelie  Torge           39.3          20.6              190        3650
 3 Adelie  Torge           39.2          19.6              195        4675
 4 Adelie  Torge           38.6          21.2              191        3800
 5 Adelie  Torge           42.5          20.7              197        4500
 6 Adelie  Torge           46            21.5              194        4200
 7 Adelie  Biscoe           37.7          18.7              180        3600
 8 Adelie  Biscoe           38.2          18.1              185        3950
 9 Adelie  Biscoe           38.8          17.2              180        3800
10 Adelie  Biscoe           40.6          18.6              183        3550
#  with 157 more rows, and 2 more variables: sex <fct>, year <int>

4 Based upon columns

4.1 Based upon the place of variable

from variable first to the third variable

penguins %>%
  select(1:3)

# A tibble: 344 x 3
   species island    bill_length_mm
   <fct>   <fct>              <dbl>
 1 Adelie  Torgersen           39.1
 2 Adelie  Torgersen           39.5
 3 Adelie  Torgersen           40.3
 4 Adelie  Torgersen           NA  
 5 Adelie  Torgersen           36.7
 6 Adelie  Torgersen           39.3
 7 Adelie  Torgersen           38.9
 8 Adelie  Torgersen           39.2
 9 Adelie  Torgersen           34.1
10 Adelie  Torgersen           42  
#  with 334 more rows

all variable except variables from first to the third variables

penguins %>%
  select(-c(1:3))

# A tibble: 344 x 5
   bill_depth_mm flipper_length_mm body_mass_g sex     year
           <dbl>             <int>       <int> <fct>  <int>
 1          18.7               181        3750 male    2007
 2          17.4               186        3800 female  2007
 3          18                 195        3250 female  2007
 4          NA                  NA          NA <NA>    2007
 5          19.3               193        3450 female  2007
 6          20.6               190        3650 male    2007
 7          17.8               181        3625 female  2007
 8          19.6               195        4675 male    2007
 9          18.1               193        3475 <NA>    2007
10          20.2               190        4250 <NA>    2007
#  with 334 more rows

penguins %>%
  select(c(1, 4, 5, 6, 8))

# A tibble: 344 x 5
   species bill_depth_mm flipper_length_mm body_mass_g  year
   <fct>           <dbl>             <int>       <int> <int>
 1 Adelie           18.7               181        3750  2007
 2 Adelie           17.4               186        3800  2007
 3 Adelie           18                 195        3250  2007
 4 Adelie           NA                  NA          NA  2007
 5 Adelie           19.3               193        3450  2007
 6 Adelie           20.6               190        3650  2007
 7 Adelie           17.8               181        3625  2007
 8 Adelie           19.6               195        4675  2007
 9 Adelie           18.1               193        3475  2007
10 Adelie           20.2               190        4250  2007
#  with 334 more rows

4.2 Based upon exact name of the column

you can always replace the digit place of the variables with the exact name of the variables

penguins %>%
  select(-c(sex, species, year, island))

# A tibble: 344 x 4
   bill_length_mm bill_depth_mm flipper_length_mm body_mass_g
            <dbl>         <dbl>             <int>       <int>
 1           39.1          18.7               181        3750
 2           39.5          17.4               186        3800
 3           40.3          18                 195        3250
 4           NA            NA                  NA          NA
 5           36.7          19.3               193        3450
 6           39.3          20.6               190        3650
 7           38.9          17.8               181        3625
 8           39.2          19.6               195        4675
 9           34.1          18.1               193        3475
10           42            20.2               190        4250
#  with 334 more rows

5 Arrange the data

penguins %>%
  arrange(bill_length_mm)

# A tibble: 344 x 8
   species island bill_length_mm bill_depth_mm flipper_length_ body_mass_g
   <fct>   <fct>           <dbl>         <dbl>            <int>       <int>
 1 Adelie  Dream            32.1          15.5              188        3050
 2 Adelie  Dream            33.1          16.1              178        2900
 3 Adelie  Torge           33.5          19                190        3600
 4 Adelie  Dream            34            17.1              185        3400
 5 Adelie  Torge           34.1          18.1              193        3475
 6 Adelie  Torge           34.4          18.4              184        3325
 7 Adelie  Biscoe           34.5          18.1              187        2900
 8 Adelie  Torge           34.6          21.1              198        4400
 9 Adelie  Torge           34.6          17.2              189        3200
10 Adelie  Biscoe           35            17.9              190        3450
#  with 334 more rows, and 2 more variables: sex <fct>, year <int>

you can also decide the ascending or the descending order of the variable

penguins %>%
  arrange(desc(bill_length_mm))

# A tibble: 344 x 8
   species island bill_length_mm bill_depth_mm flipper_length_ body_mass_g
   <fct>   <fct>           <dbl>         <dbl>            <int>       <int>
 1 Gentoo  Biscoe           59.6          17                230        6050
 2 Chinst Dream            58            17.8              181        3700
 3 Gentoo  Biscoe           55.9          17                228        5600
 4 Chinst Dream            55.8          19.8              207        4000
 5 Gentoo  Biscoe           55.1          16                230        5850
 6 Gentoo  Biscoe           54.3          15.7              231        5650
 7 Chinst Dream            54.2          20.8              201        4300
 8 Chinst Dream            53.5          19.9              205        4500
 9 Gentoo  Biscoe           53.4          15.8              219        5500
10 Chinst Dream            52.8          20                205        4550
#  with 334 more rows, and 2 more variables: sex <fct>, year <int>

6 Mutate the data

penguins %>%
  mutate(mass_kg = body_mass_g / 1000)

# A tibble: 344 x 9
   species island bill_length_mm bill_depth_mm flipper_length_ body_mass_g
   <fct>   <fct>           <dbl>         <dbl>            <int>       <int>
 1 Adelie  Torge           39.1          18.7              181        3750
 2 Adelie  Torge           39.5          17.4              186        3800
 3 Adelie  Torge           40.3          18                195        3250
 4 Adelie  Torge           NA            NA                 NA          NA
 5 Adelie  Torge           36.7          19.3              193        3450
 6 Adelie  Torge           39.3          20.6              190        3650
 7 Adelie  Torge           38.9          17.8              181        3625
 8 Adelie  Torge           39.2          19.6              195        4675
 9 Adelie  Torge           34.1          18.1              193        3475
10 Adelie  Torge           42            20.2              190        4250
#  with 334 more rows, and 3 more variables: sex <fct>, year <int>,
#   mass_kg <dbl>

to show the last hidden columns lets call only the last four columns

penguins %>%
  mutate(mass_kg = body_mass_g / 1000) %>%
  select(4:9)

# A tibble: 344 x 6
   bill_depth_mm flipper_length_mm body_mass_g sex     year mass_kg
           <dbl>             <int>       <int> <fct>  <int>   <dbl>
 1          18.7               181        3750 male    2007    3.75
 2          17.4               186        3800 female  2007    3.8 
 3          18                 195        3250 female  2007    3.25
 4          NA                  NA          NA <NA>    2007   NA   
 5          19.3               193        3450 female  2007    3.45
 6          20.6               190        3650 male    2007    3.65
 7          17.8               181        3625 female  2007    3.62
 8          19.6               195        4675 male    2007    4.68
 9          18.1               193        3475 <NA>    2007    3.48
10          20.2               190        4250 <NA>    2007    4.25
#  with 334 more rows

another way is to remove all variables and keep only the newly calculated variable

penguins %>%
  transmute(mass_kg = body_mass_g / 1000)

# A tibble: 344 x 1
   mass_kg
     <dbl>
 1    3.75
 2    3.8 
 3    3.25
 4   NA   
 5    3.45
 6    3.65
 7    3.62
 8    4.68
 9    3.48
10    4.25
#  with 334 more rows
…
# A tibble: 3 x 2
  island    `mean(bill_length_mm)`
  <fct>                      <dbl>
1 Torgersen                   39.0
2 Biscoe                      45.2
3 Dream                       44.2

8 Rename the variables

lets rename the variable bill_length_mm as just length

penguins %>%
  rename(length = bill_length_mm)

# A tibble: 344 x 8
   species island  length bill_depth_mm flipper_length_ body_mass_g sex    year
   <fct>   <fct>    <dbl>         <dbl>            <int>       <int> <fct> <int>
 1 Adelie  Torger   39.1          18.7              181        3750 male   2007
 2 Adelie  Torger   39.5          17.4              186        3800 fema  2007
 3 Adelie  Torger   40.3          18                195        3250 fema  2007
 4 Adelie  Torger   NA            NA                 NA          NA <NA>   2007
 5 Adelie  Torger   36.7          19.3              193        3450 fema  2007
 6 Adelie  Torger   39.3          20.6              190        3650 male   2007
 7 Adelie  Torger   38.9          17.8              181        3625 fema  2007
 8 Adelie  Torger   39.2          19.6              195        4675 male   2007
 9 Adelie  Torger   34.1          18.1              193        3475 <NA>   2007
10 Adelie  Torger   42            20.2              190        4250 <NA>   2007
#  with 334 more rows

we can also select to show only the newly renamed variable as well

penguins %>%
  rename(length = bill_length_mm) %>%
  select(length)

# A tibble: 344 x 1
   length
    <dbl>
 1   39.1
 2   39.5
 3   40.3
 4   NA  
 5   36.7
 6   39.3
 7   38.9
 8   39.2
 9   34.1
10   42  
#  with 334 more rows

also you can rename several together

penguins %>%
  rename(
    length = bill_length_mm,
    depth = bill_depth_mm,
    weight = body_mass_g
  )

# A tibble: 344 x 8
   species island    length depth flipper_length_mm weight sex     year
   <fct>   <fct>      <dbl> <dbl>             <int>  <int> <fct>  <int>
 1 Adelie  Torgersen   39.1  18.7               181   3750 male    2007
 2 Adelie  Torgersen   39.5  17.4               186   3800 female  2007
 3 Adelie  Torgersen   40.3  18                 195   3250 female  2007
 4 Adelie  Torgersen   NA    NA                  NA     NA <NA>    2007
 5 Adelie  Torgersen   36.7  19.3               193   3450 female  2007
 6 Adelie  Torgersen   39.3  20.6               190   3650 male    2007
 7 Adelie  Torgersen   38.9  17.8               181   3625 female  2007
 8 Adelie  Torgersen   39.2  19.6               195   4675 male    2007
 9 Adelie  Torgersen   34.1  18.1               193   3475 <NA>    2007
10 Adelie  Torgersen   42    20.2               190   4250 <NA>    2007
#  with 334 more rows
